^D:\ONEDRIVE\PROGRAMMING PROJECTS\UNIVERSITY\SMC - STANDARD MODERN C++\LABORATOR1\PRODUCTS\PRODUCTS\PRODUCTS\IPRICABLE.CPP
/c /ZI /JMC /nologo /W3 /WX- /diagnostics:column /sdl /Od /Oy- /D _MBCS /Gm- /EHsc /RTC1 /MDd /GS /fp:precise /permissive- /Zc:wchar_t /Zc:forScope /Zc:inline /Fo"DEBUG\\" /Fd"DEBUG\VC142.PDB" /Gd /TP /analyze- /FC D:\ONEDRIVE\PROGRAMMING PROJECTS\UNIVERSITY\SMC - STANDARD MODERN C++\LABORATOR1\PRODUCTS\PRODUCTS\PRODUCTS\IPRICABLE.CPP
^D:\ONEDRIVE\PROGRAMMING PROJECTS\UNIVERSITY\SMC - STANDARD MODERN C++\LABORATOR1\PRODUCTS\PRODUCTS\PRODUCTS\IPRICEABLE.CPP
/c /ZI /JMC /nologo /W3 /WX- /diagnostics:column /sdl /Od /Oy- /D _MBCS /Gm- /EHsc /RTC1 /MDd /GS /fp:precise /permissive- /Zc:wchar_t /Zc:forScope /Zc:inline /Fo"DEBUG\\" /Fd"DEBUG\VC142.PDB" /Gd /TP /analyze- /FC D:\ONEDRIVE\PROGRAMMING PROJECTS\UNIVERSITY\SMC - STANDARD MODERN C++\LABORATOR1\PRODUCTS\PRODUCTS\PRODUCTS\IPRICEABLE.CPP
^D:\ONEDRIVE\PROGRAMMING PROJECTS\UNIVERSITY\SMC - STANDARD MODERN C++\LABORATOR1\PRODUCTS\PRODUCTS\PRODUCTS\PRODUCT.CPP
/c /ZI /JMC /nologo /W3 /WX- /diagnostics:column /sdl /Od /Oy- /D _MBCS /Gm- /EHsc /RTC1 /MDd /GS /fp:precise /permissive- /Zc:wchar_t /Zc:forScope /Zc:inline /Fo"DEBUG\\" /Fd"DEBUG\VC142.PDB" /Gd /TP /analyze- /FC D:\ONEDRIVE\PROGRAMMING PROJECTS\UNIVERSITY\SMC - STANDARD MODERN C++\LABORATOR1\PRODUCTS\PRODUCTS\PRODUCTS\PRODUCT.CPP
^D:\ONEDRIVE\PROGRAMMING PROJECTS\UNIVERSITY\SMC - STANDARD MODERN C++\LABORATOR1\PRODUCTS\PRODUCTS\PRODUCTS\PERISHABLEPRODUCT.CPP
/c /ZI /JMC /nologo /W3 /WX- /diagnostics:column /sdl /Od /Oy- /D _MBCS /Gm- /EHsc /RTC1 /MDd /GS /fp:precise /permissive- /Zc:wchar_t /Zc:forScope /Zc:inline /Fo"DEBUG\\" /Fd"DEBUG\VC142.PDB" /Gd /TP /analyze- /FC D:\ONEDRIVE\PROGRAMMING PROJECTS\UNIVERSITY\SMC - STANDARD MODERN C++\LABORATOR1\PRODUCTS\PRODUCTS\PRODUCTS\PERISHABLEPRODUCT.CPP
^D:\ONEDRIVE\PROGRAMMING PROJECTS\UNIVERSITY\SMC - STANDARD MODERN C++\LABORATOR1\PRODUCTS\PRODUCTS\PRODUCTS\NONPERISHABLEPRODUCT.CPP
/c /ZI /JMC /nologo /W3 /WX- /diagnostics:column /sdl /Od /Oy- /D _MBCS /Gm- /EHsc /RTC1 /MDd /GS /fp:precise /permissive- /Zc:wchar_t /Zc:forScope /Zc:inline /Fo"DEBUG\\" /Fd"DEBUG\VC142.PDB" /Gd /TP /analyze- /FC D:\ONEDRIVE\PROGRAMMING PROJECTS\UNIVERSITY\SMC - STANDARD MODERN C++\LABORATOR1\PRODUCTS\PRODUCTS\PRODUCTS\NONPERISHABLEPRODUCT.CPP
^D:\ONEDRIVE\PROGRAMMING PROJECTS\UNIVERSITY\SMC - STANDARD MODERN C++\LABORATOR1\PRODUCTS\PRODUCTS\PRODUCTS\MAIN.CPP
/c /ZI /JMC /nologo /W3 /WX- /diagnostics:column /sdl /Od /Oy- /D _MBCS /Gm- /EHsc /RTC1 /MDd /GS /fp:precise /permissive- /Zc:wchar_t /Zc:forScope /Zc:inline /Fo"DEBUG\\" /Fd"DEBUG\VC142.PDB" /Gd /TP /analyze- /FC D:\ONEDRIVE\PROGRAMMING PROJECTS\UNIVERSITY\SMC - STANDARD MODERN C++\LABORATOR1\PRODUCTS\PRODUCTS\PRODUCTS\MAIN.CPP
