^D:\ONEDRIVE\PROGRAMMING PROJECTS\UNIVERSITY\SMC - STANDARD MODERN C++\LABORATOR1\PRODUCTS\PRODUCTS\PRODUCTS\DEBUG\MAIN.OBJ|D:\ONEDRIVE\PROGRAMMING PROJECTS\UNIVERSITY\SMC - STANDARD MODERN C++\LABORATOR1\PRODUCTS\PRODUCTS\PRODUCTS\DEBUG\NONPERISHABLEPRODUCT.OBJ|D:\ONEDRIVE\PROGRAMMING PROJECTS\UNIVERSITY\SMC - STANDARD MODERN C++\LABORATOR1\PRODUCTS\PRODUCTS\PRODUCTS\DEBUG\PERISHABLEPRODUCT.OBJ|D:\ONEDRIVE\PROGRAMMING PROJECTS\UNIVERSITY\SMC - STANDARD MODERN C++\LABORATOR1\PRODUCTS\PRODUCTS\PRODUCTS\DEBUG\PRODUCT.OBJ
D:\ONEDRIVE\PROGRAMMING PROJECTS\UNIVERSITY\SMC - STANDARD MODERN C++\LABORATOR1\PRODUCTS\PRODUCTS\DEBUG\PRODUCTS.EXE
D:\ONEDRIVE\PROGRAMMING PROJECTS\UNIVERSITY\SMC - STANDARD MODERN C++\LABORATOR1\PRODUCTS\PRODUCTS\DEBUG\PRODUCTS.ILK
D:\ONEDRIVE\PROGRAMMING PROJECTS\UNIVERSITY\SMC - STANDARD MODERN C++\LABORATOR1\PRODUCTS\PRODUCTS\DEBUG\PRODUCTS.PDB
